{
    "en": {
        "filterGroup": "Filter groups",
        "filterUsers": "Filter users",
        "filterDashboards": "Filter dashboards",
        "addGroup": "Add group",
        "members": "Members",
        "delete": "Delete",
        "update": "Update",
        "back": "Back",
        "cancel": "Cancel",
        "delete_confirm": "Do you want to delete the '{Title}' group?",
        "submit": "Submit",
        "groupID": "Group ID",
        "groupName": "Group name",
        "description": "Description"
    },
    "de": {
        "filterGroup": "Gruppen filtern",
        "filterUsers": "Benutzer filtern",
        "filterDashboards": "Dashboards filtern",
        "addGroup": "Gruppe anlegen",
        "members": "Mitglieder",
        "delete": "Löschen",
        "update": "Aktualisieren",
        "back": "Zurück",
        "cancel": "Abbrechen",
        "delete_confirm": "Möchten Sie die Gruppe '{Title}' wirklich löschen?",
        "submit": "Übermitteln",
        "groupID": "Gruppen-ID",
        "groupName": "Gruppenname",
        "description": "Beschreibung"
    }
}